digraph "vector.h"
{
  edge [fontname="Helvetica",fontsize="10",labelfontname="Helvetica",labelfontsize="10"];
  node [fontname="Helvetica",fontsize="10",shape=record];
  Node6 [label="vector.h",height=0.2,width=0.4,color="black", fillcolor="grey75", style="filled", fontcolor="black"];
  Node6 -> Node7 [dir="back",color="midnightblue",fontsize="10",style="solid",fontname="Helvetica"];
  Node7 [label="vector.c",height=0.2,width=0.4,color="black", fillcolor="white", style="filled",URL="$df/dfa/vector_8c.html",tooltip="generic vector library allowing to manage vectors generically. "];
}
